{
	"info": {
		"_postman_id": "b9b27346-be33-4b27-8a44-5c62e5042b5e",
		"name": "Endangered Species Website API",
		"description": "Intro:\n \nThis API is designed to support calls for retrieving information from the Endangered Species Website. Calls will allow accessing different endangered species, country information, and protected area information.\n\nAuthentication:\n \nNo authentication is required.\n\nError Codes:\n \n200: Successful GET\n \n404: Path does not exist\n \n400: Incorrect Parameters",
		"schema": "https://schema.getpostman.com/json/collection/v2.1.0/collection.json"
	},
	"item": [
		{
			"name": "List of Endangered Species",
			"event": [
				{
					"listen": "test",
					"script": {
						"id": "8ef4ef14-6be6-4c37-a356-5081051ad9ba",
						"exec": [
							"pm.test(\"Status code is 200\", function () {",
							"    pm.response.to.have.status(200);",
							"});",
							"",
							"pm.sendRequest(\"https://postman-echo.com/get\", function (err, response) {",
							"    console.log(response.json());",
							"});",
							"",
							"pm.test(\"response must be valid\", function () {",
							"     // assert that the status code is 200",
							"     pm.response.to.be.ok; // info, success, redirection, clientError,  serverError, are other variants",
							"});",
							"",
							"pm.test(\"response must have a body\", function () {",
							"     // assert that the response has a valid JSON body",
							"     pm.response.to.be.withBody;",
							"     pm.response.to.be.json; // this assertion also checks if a body  exists, so the above check is not needed",
							"});",
							"",
							"pm.test(\"Response time is less than 1000ms\", function () {",
							"    pm.expect(pm.response.responseTime).to.be.below(1000);",
							"});"
						],
						"type": "text/javascript"
					}
				}
			],
			"request": {
				"method": "GET",
				"header": [],
				"url": {
					"raw": "https://endangeredanimals.me/api/animal",
					"protocol": "https",
					"host": [
						"endangeredanimals",
						"me"
					],
					"path": [
						"api",
						"animal"
					]
				},
				"description": "Returns a list of endangered species and their corresponding attributes."
			},
			"response": [
				{
					"name": "List of Endangered Species",
					"originalRequest": {
						"method": "GET",
						"header": [],
						"url": {
							"raw": "http://endangeredanimals.me/animals",
							"protocol": "http",
							"host": [
								"endangeredanimals",
								"me"
							],
							"path": [
								"animals"
							]
						}
					},
					"_postman_previewlanguage": "Text",
					"header": [],
					"cookie": [],
					"body": "{\n\t\"num_results\": 38,\n\t\"objects\": [\n\t\t{\n\t\t\t\"country\": \"Afganistan\",\n\t\t\t\"habitat\": \"Forest - Temperate\",\n\t\t\t\"id\": 1,\n\t\t\t\"name\": \"Pied Wheatear\",\n\t\t\t\"population\": \"Stable\",\n\t\t\t\"species\": \"Oenanthe pleschanka\",\n\t\t\t\"status\": \"LC\",\n\t\t\t\"taxonID\": 22710308\n\t\t},\n\t\t{\n\t\t\t\"country\": \"Afganistan\",\n\t\t\t\"habitat\": \"Wetlands (inland) - Bogs, Marshes, Swamps, Fens, Peatlands\",\n\t\t\t\"id\": 5,\n\t\t\t\"name\": null,\n\t\t\t\"population\": \"Unknown\",\n\t\t\t\"species\": \"Palpopleura sexmaculata\",\n\t\t\t\"status\": \"LC\",\n\t\t\t\"taxonID\": 163719\n\t\t}\n\t],\n\t\"page\": 1,\n\t\"total_pages\": 4\n}"
				}
			]
		},
		{
			"name": "List of Countries",
			"event": [
				{
					"listen": "test",
					"script": {
						"id": "1b029165-e1e1-474c-aa51-bf7ddc912376",
						"exec": [
							"pm.test(\"Status code is 200\", function () {",
							"    pm.response.to.have.status(200);",
							"});",
							"",
							"pm.sendRequest(\"https://postman-echo.com/get\", function (err, response) {",
							"    console.log(response.json());",
							"});",
							"",
							"pm.test(\"response must be valid\", function () {",
							"     // assert that the status code is 200",
							"     pm.response.to.be.ok; // info, success, redirection, clientError,  serverError, are other variants",
							"});",
							"",
							"pm.test(\"response must have a body\", function () {",
							"     // assert that the response has a valid JSON body",
							"     pm.response.to.be.withBody;",
							"     pm.response.to.be.json; // this assertion also checks if a body  exists, so the above check is not needed",
							"});",
							"",
							"pm.test(\"Response time is less than 1000ms\", function () {",
							"    pm.expect(pm.response.responseTime).to.be.below(1000);",
							"});"
						],
						"type": "text/javascript"
					}
				}
			],
			"request": {
				"auth": {
					"type": "noauth"
				},
				"method": "GET",
				"header": [],
				"url": {
					"raw": "https://endangeredanimals.me/api/country",
					"protocol": "https",
					"host": [
						"endangeredanimals",
						"me"
					],
					"path": [
						"api",
						"country"
					]
				},
				"description": "Returns a list of countries and their corresponding attributes."
			},
			"response": [
				{
					"name": "List of Countries",
					"originalRequest": {
						"method": "GET",
						"header": [],
						"url": {
							"raw": "http://endangeredanimals.me/countries",
							"protocol": "http",
							"host": [
								"endangeredanimals",
								"me"
							],
							"path": [
								"countries"
							]
						}
					},
					"_postman_previewlanguage": "Text",
					"header": [],
					"cookie": [],
					"body": "{\n  \"num_results\": 19,\n  \"objects\": [\n\t{\n\t  \"aqi\" : 183.0,\n\t  \"areasCount\": 12,\n      \"id\": 1,\n\t  \"latitude\": 34.5228,\n      \"longitude\": 69.1761,\n\t  \"name\": \"Afghanistan\",\n\t  \"pm10\": -1.0,\n      \"region\": \"South Asia\"\n\t},\n\t{\n\t  \"aqi\" : 46.0,\n\t  \"areasCount\": 25,\n\t  \"id\": 2,\n\t  \"latitude\": 41.3317,\n\t  \"longitude\": 19.8172,\n\t  \"name\": \"Albania\",\n\t  \"pm10\": 26.0,\n\t  \"region\": \"Europe & Central Asia\"\n\t}\n  ],\n\"page\": 1,\n\"total_pages\": 2\n}"
				}
			]
		},
		{
			"name": "List of Protected Areas",
			"event": [
				{
					"listen": "test",
					"script": {
						"id": "7f55bc83-a2e3-4616-8311-e73af10426f0",
						"exec": [
							"pm.test(\"Status code is 200\", function () {",
							"    pm.response.to.have.status(200);",
							"});",
							"",
							"pm.sendRequest(\"https://postman-echo.com/get\", function (err, response) {",
							"    console.log(response.json());",
							"});",
							"",
							"pm.test(\"response must be valid\", function () {",
							"     // assert that the status code is 200",
							"     pm.response.to.be.ok; // info, success, redirection, clientError,  serverError, are other variants",
							"});",
							"",
							"pm.test(\"response must have a body\", function () {",
							"     // assert that the response has a valid JSON body",
							"     pm.response.to.be.withBody;",
							"     pm.response.to.be.json; // this assertion also checks if a body  exists, so the above check is not needed",
							"});",
							"",
							"pm.test(\"Response time is less than 1000ms\", function () {",
							"    pm.expect(pm.response.responseTime).to.be.below(1000);",
							"});"
						],
						"type": "text/javascript"
					}
				}
			],
			"request": {
				"auth": {
					"type": "noauth"
				},
				"method": "GET",
				"header": [],
				"url": {
					"raw": "https://endangeredanimals.me/api/area",
					"protocol": "https",
					"host": [
						"endangeredanimals",
						"me"
					],
					"path": [
						"api",
						"area"
					]
				},
				"description": "Returns a list of protected areas and their corresponding attributes."
			},
			"response": [
				{
					"name": "List of Protected Areas",
					"originalRequest": {
						"method": "GET",
						"header": [],
						"url": {
							"raw": "http://endangeredanimals.me/protectedareas",
							"protocol": "http",
							"host": [
								"endangeredanimals",
								"me"
							],
							"path": [
								"protectedareas"
							]
						}
					},
					"_postman_previewlanguage": "Text",
					"header": [],
					"cookie": [],
					"body": "{\n\t\"num_results\": 748,\n\t\"objects\": [\n\t\t{\n\t\t\t\"area\":0.2,\n\t\t\t\"country\": \"Aruba\",\n\t\t\t\"id\": 1,\n\t\t\t\"lastUpdated\": null,\n\t\t\t\"latitude\": 0.0,\n\t\t\t\"longitude\": 0.0,\n\t\t\t\"name\": \"Bubali Pond Bird Sanctuary\"\n\t\t},\n\t\t{\n\t\t\t\"area\":0.7,\n\t\t\t\"country\": \"Aruba\",\n\t\t\t\"id\": 2,\n\t\t\t\"lastUpdated\": \"01/01/1980\",\n\t\t\t\"latitude\": 0.0,\n\t\t\t\"longitude\": 0.0,\n\t\t\t\"name\": \"Het Spaans Lagoen\"\n\t\t}\n\t],\n\t\"page\": 1,\n\t\"total_pages\": 75\n}"
				}
			]
		}
	],
	"event": [
		{
			"listen": "prerequest",
			"script": {
				"id": "497db0f5-3bf8-420a-a997-f671c3818185",
				"type": "text/javascript",
				"exec": [
					""
				]
			}
		},
		{
			"listen": "test",
			"script": {
				"id": "b6e8d68d-8a9f-4410-ae8b-3c8756744ac7",
				"type": "text/javascript",
				"exec": [
					""
				]
			}
		}
	],
	"protocolProfileBehavior": {}
}
